{
  "$schema": "https://json-schema.org/draft/2020-12/schema",
  "type": "object",
  "required": [ "general" ],
  "properties": {
    "general": {
      "type": "object",
      "description": "General properties.",
      "required": [ "name", "doctype", "docbranch", "docformat", "version" ],
      "properties": {
        "name": {
          "type": "string"
        },
        "doctype": {
          "type": "array",
          "items": {
            "type": "string"
          }
        },
        "docbranch": {
          "type": "array",
          "items": {
            "type": "string",
            "enum": [ "develop_pages", "pages", "main", "master" ]
          }
        },
        "docformat": {
          "type": "array",
          "items": {
            "type": "string",
            "enum": [ "html", "pdf", "docx" ]
          }
        },
        "version": {
          "type": "string"
        },
        "pagenums": {
          "type": "boolean",
          "default": true
        },
        "sectnums": {
          "type": "boolean",
          "default": true
        },
        "header": {
          "type": "boolean"
        },
        "footer": {
          "type": "boolean"
        },
        "language": {
          "type": "string",
          "enum": [ "ru", "en" ],
          "default": "ru"
        }
      }
    },
    "structure": {
      "type": "array",
      "description": "Chapters.",
      "required": [ "chapter", "title", "files" ],
      "properties": {
        "chapter": {
          "type": "integer",
          "minimum": 1
        },
        "title": {
          "type": "string"
        },
        "files": {
          "type": "object",
          "properties": {
            "folder": {
              "type": "string"
            },
            "include_files": {
              "type": "string",
              "pattern": "^[a-zA-Z0-9\"'+*!^$()\\\\_[\\]<=>?{}./|]+$"
            },
            "exclude_files": {
              "type": "string",
              "pattern": "^[a-zA-Z0-9\"'+*!^$()\\\\_[\\]<=>?{}./|]+$"
            }
          }
        },
        "include": {
          "type": "string",
          "pattern": "^[a-zA-Z0-9\"'+*!^$()\\\\_[\\]<=>?{}./|]+$"
        },
        "exclude": {
          "type": "string",
          "pattern": "^[a-zA-Z0-9\"'+*!^$()\\\\_[\\]<=>?{}./|]+$"
        }
      }
    }
  }
}